======================================================================================
    _                                            _                  _                 
   (_)                                          (_)                | |                
    _    __ _  __   __   __ _   ______    __ _   _   _ __   _ __   | |   __ _   _   _ 
   | |  / _` | \ \ / /  / _` | |______|  / _` | | | | '__| | '_ \  | |  / _` | | | | |
   | | | (_| |  \ V /  | (_| |          | (_| | | | | |    | |_) | | | | (_| | | |_| |
   | |  \__,_|   \_/    \__,_|           \__,_| |_| |_|    | .__/  |_|  \__,_|  \__, |
  _/ |                                                     | |                   __/ |
 |__/                                                      |_|                  |___/
 Version: ${application.version} 
======================================================================================